Project 1: Exploratory Data Analysis
…
#Shows number of arrests by gender
gender_stops <- fulldata %>% group_by(gender) %>% summarize(sum_stops=sum(gender_number_of_stops))
glimpse(gender_stops)

## Observations: 3
## Variables: 2
## $ gender    <fct> Female, Male, Unknown
## $ sum_stops <int> 431936, 3735595, 188708

#Number of stops by neighborhood
fulldata %>% select(race, neighborhood, race_number_of_stops) %>% group_by(neighborhood) %>% summarize(sum_stops=sum(race_number_of_stops)) %>% arrange(desc(sum_stops))

## Adding missing grouping variables: `gender`

## # A tibble: 84 x 2
##    neighborhood                sum_stops
##    <chr>                           <int>
##  1 Downtown West                  673248
##  2 Jordan                         329931
##  3 Hawthorne                      301478
##  4 Whittier                       222570
##  5 Nicollet Island - East Bank    133144
##  6 Folwell                        113918
##  7 Lyndale                        109205
##  8 Marcy Holmes                    91645
##  9 Willard - Hay                   91184
## 10 Lowry Hill East                 79067
## # … with 74 more rows

fulldata %>% select(neighborhood, white, black, foreignBorn) %>% subset(select=-gender) %>% unique() %>% arrange(desc(black))

## Adding missing grouping variables: `gender`

## # A tibble: 84 x 4
##    neighborhood      white black foreignBorn
##    <chr>             <dbl> <dbl>       <dbl>
##  1 Sumner - Glenwood 0.087 0.656       0.292
##  2 Phillips West     0.199 0.538       0.318
##  3 Willard - Hay     0.215 0.516       0.141
##  4 Cedar Riverside   0.353 0.464       0.408
##  5 Hawthorne         0.186 0.456       0.167
##  6 Jordan            0.183 0.453       0.155
##  7 Harrison          0.31  0.427       0.163
##  8 Ventura Village   0.214 0.424       0.329
##  9 McKinley          0.22  0.416       0.161
## 10 Folwell           0.285 0.403       0.116
## # … with 74 more rows

#Ratio of blacks to whites in each neighborhood
fulldata %>% mutate(bw=black_pop/white_pop) %>% select(neighborhood, bw) %>% subset(select=-gender) %>% unique() %>% arrange(desc(bw))

## Adding missing grouping variables: `gender`

## # A tibble: 84 x 2
##    neighborhood         bw
##    <chr>             <dbl>
##  1 Sumner - Glenwood  7.54
##  2 Phillips West      2.70
##  3 Jordan             2.48
##  4 Hawthorne          2.45
##  5 Willard - Hay      2.4 
##  6 Ventura Village    1.98
##  7 McKinley           1.89
##  8 East Phillips      1.83
##  9 Folwell            1.41
## 10 Harrison           1.38
## # … with 74 more rows
…
